{
  "data": [
    {
      "id": 15,
      "documentId": "fpc67fbjtu8onbwdegfv7khl",
      "slug": "favorite-west-europe-luxembourg-and-dolomites",
      "title": "Favorite West Europe + Luxembourg & Dolomites",
      "description": "Jalan Jalan Ke Luar Negeri",
      "publishedAt": "2025-04-06T13:04:56.052Z",
      "author": "admin",
      "body": "Jelajahi keindahan Eropa Barat dengan kombinasi sempurna antara pesona kota dan alam yang menakjubkan. Nikmati kemegahan Luxembourg yang kaya sejarah, serta keindahan pegunungan Dolomites yang memukau dengan pemandangan alamnya yang spektakuler. Tour ini menawarkan itinerary lengkap, akomodasi nyaman, dan pengalaman budaya yang mendalam, cocok untuk Anda yang ingin menikmati keajaiban Eropa dalam satu perjalanan tak terlupakan!",
      "image": {
        "id": 2,
        "documentId": "t8kfnmvcvo9i4v9dokfycbpe",
        "url": "/uploads/Twin_Tower_Malaysia_1bfc24d988_ba5cddb754.jpg"
      }
    },
    {
      "id": 14,
      "documentId": "i9bms6mw5wad35o31kznbubv",
      "slug": "favorite-west-europe-keukenhof-tulip-festival-and-dolomites",
      "title": "Favorite West Europe + Keukenhof Tulip Festival & Dolomites",
      "description": "Jalan Jalan Ke Eropa Barat",
      "publishedAt": "2025-04-06T13:04:48.548Z",
      "author": "admin",
      "body": "**Bold**Jelajahi keajaiban Eropa Barat dengan kombinasi sempurna antara keindahan alam dan budaya. Nikmati hamparan bunga tulip yang memukau di taman terbesar di dunia, serta keindahan pegunungan Dolomites yang menakjubkan. Kunjungi kota-kota ikonik penuh sejarah, seni, dan pesona khas Eropa. Dengan itinerary lengkap, akomodasi nyaman, dan pengalaman budaya yang kaya, tour ini menawarkan petualangan tak terlupakan untuk menikmati keindahan Eropa dalam satu perjalanan istimewa!",
      "image": {
        "id": 3,
        "documentId": "icyomxpu0z9j0b1wnard7gd9",
        "url": "/uploads/Banner_Desktop_c12610678f_5c5825a055.jpg"
      }
    },
    {
      "id": 13,
      "documentId": "lns9ag7ww4esex98momjqswa",
      "slug": "favorite-taiwan-alishan-sun-moon-lake",
      "title": "Favorite Taiwan Alishan + Sun Moon Lake",
      "description": "6 Tanggal Keberangkatan",
      "publishedAt": "2025-04-06T13:04:34.378Z",
      "author": "admin",
      "body": "**Bold**Temukan keindahan Taiwan yang memesona melalui tur ini. Alishan menawarkan pemandangan pegunungan yang hijau, kereta api tua yang ikonik, dan matahari terbit yang legendaris. Sementara itu, Sun Moon Lake memukau dengan danau jernihnya yang dikelilingi perbukitan hijau. Tur ini cocok bagi pecinta alam dan budaya, dengan pengalaman menyelami kehidupan lokal dan menikmati kuliner khas Taiwan yang lezat.\n\n\n",
      "image": {
        "id": 5,
        "documentId": "n0uvhf2pbb1hmqpxnlt25tic",
        "url": "/uploads/Malaysia_Banner_Desktop_940abd9476_edadd5d6f1.jpg"
      }
    }
  ],
  "meta": {
    "pagination": {
      "page": 1,
      "pageSize": 3,
      "pageCount": 2,
      "total": 5
    }
  }
}